<?xml version="1.0" encoding="UTF-8"?>
<svg width="18px" height="19px" viewBox="0 0 18 19" version="1.1" xmlns="http://www.w3.org/2000/svg" xmlns:xlink="http://www.w3.org/1999/xlink">
    <title>AF47E12A-98E6-4F7A-A8FE-D0DC15371AA9svg</title>
    <defs>
        <path d="M2.203,0.32 C1.223,0.32 0.428,1.115 0.428,2.096 L0.428,2.096 L0.428,16.641 C0.428,17.622 1.223,18.417 2.203,18.417 L2.203,18.417 L15.967,18.417 C16.948,18.417 17.743,17.622 17.743,16.641 L17.743,16.641 L17.743,2.096 C17.743,1.115 16.948,0.32 15.967,0.32 L15.967,0.32 L2.203,0.32 Z" id="path-1"></path>
    </defs>
    <g id="Page-1" stroke="none" stroke-width="1" fill="none" fill-rule="evenodd">
        <g id="Dashboard" transform="translate(-686.000000, -345.000000)">
            <g id="Group-32" transform="translate(686.000000, 345.000000)">
                <mask id="mask-2" fill="white">
                    <use xlink:href="#path-1"></use>
                </mask>
                <g id="Clip-12"></g>
                <polygon id="Fill-11" fill="#046735" mask="url(#mask-2)" points="0 19 18.369 19 18.369 0 0 0"></polygon>
                <path d="M8.3576,15.2728 L6.9386,15.2728 C6.5846,14.1558 6.4586,13.3998 6.5606,13.0038 C6.7146,12.4108 7.4416,11.5978 7.4416,11.5978 C7.4416,11.5978 10.2666,11.0618 10.5476,11.0618 C10.8296,11.0618 14.2646,8.9908 14.5026,8.8678 C14.7406,8.7448 14.8236,8.6798 15.1446,8.6798 C15.3586,8.6798 17.2906,8.7428 20.9406,8.8678 C22.7716,10.2498 23.7096,11.1598 23.7546,11.5978 C23.8226,12.2558 23.7546,12.3908 23.7546,13.1788 C23.7546,13.2948 24.1696,13.4198 24.1046,14.1768 C24.0616,14.6808 23.9036,14.9638 23.6296,15.0248 L22.3576,15.0248" id="Stroke-13" stroke="#FEFEFE" stroke-width="0.491" mask="url(#mask-2)"></path>
                <path d="M9.8166,16.4046 C10.6636,16.4046 11.3496,15.7086 11.3496,14.8496 C11.3496,13.9906 10.6636,13.2946 9.8166,13.2946 C8.9706,13.2946 8.2846,13.9906 8.2846,14.8496 C8.2846,15.7086 8.9706,16.4046 9.8166,16.4046 Z" id="Stroke-14" stroke="#FEFEFE" stroke-width="0.491" mask="url(#mask-2)"></path>
                <line x1="11.4152" y1="15.1419" x2="19.1632" y2="15.1419" id="Stroke-16" stroke="#FEFEFE" stroke-width="0.491" mask="url(#mask-2)"></line>
                <polyline id="Stroke-17" stroke="#FEFEFE" stroke-width="0.491" mask="url(#mask-2)" points="15.9465 11.9764 17.6545 11.9764 17.8335 12.2304"></polyline>
                <line x1="6.9299" y1="12.3724" x2="8.4089" y2="12.3724" id="Stroke-18" stroke="#FEFEFE" stroke-width="0.491" mask="url(#mask-2)"></line>
                <path d="M8.4084,12.3724 C8.0844,12.8454 7.8384,13.0814 7.6694,13.0814 C7.5004,13.0814 7.1194,13.1524 6.5264,13.2944" id="Stroke-19" stroke="#FEFEFE" stroke-width="0.491" mask="url(#mask-2)"></path>
                <path d="M22.1203,10.7903 C21.4703,9.8413 21.7243,9.8413 21.4703,9.8413 C21.0893,9.8413 15.4543,9.2673 15.0313,9.4143 C14.7483,9.5113 14.0133,9.9163 12.4323,11.0433 L22.1203,10.7903 Z" id="Stroke-20" stroke="#FEFEFE" stroke-width="0.491" mask="url(#mask-2)"></path>
                <path d="M4.1809,10.1053 L2.7629,10.1053 C2.4089,8.9883 2.2829,8.2323 2.3849,7.8373 C2.5379,7.2443 3.2659,6.4313 3.2659,6.4313 C3.2659,6.4313 6.0899,5.8953 6.3709,5.8953 C6.6539,5.8953 10.0889,3.8243 10.3269,3.7003 C10.5639,3.5773 10.6479,3.5133 10.9679,3.5133 C11.1819,3.5133 13.1149,3.5753 16.7649,3.7003 C18.5949,5.0823 19.5339,5.9923 19.5779,6.4313 C19.6469,7.0883 19.5779,7.2233 19.5779,8.0123 C19.5779,8.1273 19.9939,8.2523 19.9289,9.0093 C19.8859,9.5143 19.7279,9.7963 19.4539,9.8583 L18.1819,9.8583" id="Stroke-23" stroke="#FEFEFE" stroke-width="0.491" mask="url(#mask-2)"></path>
                <path d="M5.6408,11.2376 C6.4878,11.2376 7.1728,10.5416 7.1728,9.6826 C7.1728,8.8236 6.4878,8.1276 5.6408,8.1276 C4.7938,8.1276 4.1088,8.8236 4.1088,9.6826 C4.1088,10.5416 4.7938,11.2376 5.6408,11.2376 Z" id="Stroke-24" stroke="#FEFEFE" stroke-width="0.491" mask="url(#mask-2)"></path>
                <line x1="7.2385" y1="9.9749" x2="12.6045" y2="9.9749" id="Stroke-25" stroke="#FEFEFE" stroke-width="0.491" mask="url(#mask-2)"></line>
                <polyline id="Stroke-26" stroke="#FEFEFE" stroke-width="0.491" mask="url(#mask-2)" points="11.7697 6.8089 13.4787 6.8089 13.6567 7.0629"></polyline>
                <line x1="2.7541" y1="7.2049" x2="4.2321" y2="7.2049" id="Stroke-27" stroke="#FEFEFE" stroke-width="0.491" mask="url(#mask-2)"></line>
                <path d="M4.2316,7.2049 C3.9076,7.6779 3.6616,7.9139 3.4926,7.9139 C3.3246,7.9139 2.9436,7.9859 2.3506,8.1269" id="Stroke-28" stroke="#FEFEFE" stroke-width="0.491" mask="url(#mask-2)"></path>
                <path d="M17.9445,5.6234 C17.2945,4.6744 16.7775,4.3594 16.5235,4.3594 C16.1415,4.3594 11.4675,4.1064 11.0445,4.2524 C10.7605,4.3504 9.8845,4.7484 8.3035,5.8754 L17.9445,5.6234 Z" id="Stroke-29" stroke="#FEFEFE" stroke-width="0.491" mask="url(#mask-2)"></path>
                <line x1="14.8273" y1="5.6863" x2="14.8273" y2="4.0983" id="Stroke-30" stroke="#FEFEFE" stroke-width="0.491" mask="url(#mask-2)"></line>
                <polyline id="Stroke-31" stroke="#FEFEFE" stroke-width="0.491" mask="url(#mask-2)" points="19.4211 6.0867 17.6901 6.0867 18.5551 7.0637 19.6081 7.0637"></polyline>
            </g>
        </g>
    </g>
</svg>