<?xml version="1.0" encoding="UTF-8" standalone="no"?>
<svg
   xmlns:dc="http://purl.org/dc/elements/1.1/"
   xmlns:cc="http://creativecommons.org/ns#"
   xmlns:rdf="http://www.w3.org/1999/02/22-rdf-syntax-ns#"
   xmlns:svg="http://www.w3.org/2000/svg"
   xmlns="http://www.w3.org/2000/svg"
   xmlns:sodipodi="http://sodipodi.sourceforge.net/DTD/sodipodi-0.dtd"
   xmlns:inkscape="http://www.inkscape.org/namespaces/inkscape"
   width="18px"
   height="19px"
   viewBox="0 0 18 19"
   version="1.1"
   id="svg31"
   sodipodi:docname="car-single2.svg"
   inkscape:version="1.0 (4035a4fb49, 2020-05-01)">
  <metadata
     id="metadata35">
    <rdf:RDF>
      <cc:Work
         rdf:about="">
        <dc:format>image/svg+xml</dc:format>
        <dc:type
           rdf:resource="http://purl.org/dc/dcmitype/StillImage" />
        <dc:title>AF47E12A-98E6-4F7A-A8FE-D0DC15371AA9svg</dc:title>
      </cc:Work>
    </rdf:RDF>
  </metadata>
  <sodipodi:namedview
     inkscape:document-rotation="0"
     pagecolor="#ffffff"
     bordercolor="#666666"
     borderopacity="1"
     objecttolerance="10"
     gridtolerance="10"
     guidetolerance="10"
     inkscape:pageopacity="0"
     inkscape:pageshadow="2"
     inkscape:window-width="2560"
     inkscape:window-height="1055"
     id="namedview33"
     showgrid="false"
     inkscape:zoom="10.828947"
     inkscape:cx="23.291736"
     inkscape:cy="5.3447557"
     inkscape:window-x="2560"
     inkscape:window-y="0"
     inkscape:window-maximized="1"
     inkscape:current-layer="svg31" />
  <title
     id="title2">AF47E12A-98E6-4F7A-A8FE-D0DC15371AA9svg</title>
  <defs
     id="defs5">
    <path
       d="M2.203,0.32 C1.223,0.32 0.428,1.115 0.428,2.096 L0.428,2.096 L0.428,16.641 C0.428,17.622 1.223,18.417 2.203,18.417 L2.203,18.417 L15.967,18.417 C16.948,18.417 17.743,17.622 17.743,16.641 L17.743,16.641 L17.743,2.096 C17.743,1.115 16.948,0.32 15.967,0.32 L15.967,0.32 L2.203,0.32 Z"
       id="path-1" />
  </defs>
  <g
     transform="matrix(-0.18607992,0,0,0.18607992,16.486247,5.50639)"
     id="Car_decor"
     style="fill:none;fill-opacity:1;fill-rule:evenodd;stroke:#ffffff;stroke-width:2.0743775;stroke-opacity:1;stroke-miterlimit:4;stroke-dasharray:none">
    <g
       fill="#006729"
       transform="translate(93.6816,22.4772)"
       id="Group"
       style="fill:none;fill-opacity:1;stroke:#ffffff;stroke-opacity:1;stroke-width:2.0743775;stroke-miterlimit:4;stroke-dasharray:none">
      <path
         id="Fill-27"
         d="M 6.74,3.37 C 6.74,5.231 5.231,6.74 3.37,6.74 1.509,6.74 0,5.231 0,3.37 0,1.509 1.509,0 3.37,0 5.231,0 6.74,1.509 6.74,3.37"
         style="fill:none;fill-opacity:1;stroke:#ffffff;stroke-opacity:1;stroke-width:2.0743775;stroke-miterlimit:4;stroke-dasharray:none" />
      <path
         id="Fill-29"
         d="m 29.2142,3.37 c 0,1.861 -1.509,3.37 -3.37,3.37 -1.861,0 -3.37,-1.509 -3.37,-3.37 0,-1.861 1.509,-3.37 3.37,-3.37 1.861,0 3.37,1.509 3.37,3.37"
         style="fill:none;fill-opacity:1;stroke:#ffffff;stroke-opacity:1;stroke-width:2.0743775;stroke-miterlimit:4;stroke-dasharray:none" />
      <path
         id="Fill-31"
         d="m 51.6884,3.37 c 0,1.861 -1.509,3.37 -3.37,3.37 -1.861,0 -3.37,-1.509 -3.37,-3.37 0,-1.861 1.509,-3.37 3.37,-3.37 1.861,0 3.37,1.509 3.37,3.37"
         style="fill:none;fill-opacity:1;stroke:#ffffff;stroke-opacity:1;stroke-width:2.0743775;stroke-miterlimit:4;stroke-dasharray:none" />
    </g>
    <g
       stroke="#6c6f70"
       id="Auto-2"
       style="fill:none;fill-opacity:1;stroke:#ffffff;stroke-opacity:1;stroke-width:2.0743775;stroke-miterlimit:4;stroke-dasharray:none">
      <g
         transform="translate(8,21)"
         id="g42"
         style="fill:none;fill-opacity:1;stroke:#ffffff;stroke-opacity:1;stroke-width:2.0743775;stroke-miterlimit:4;stroke-dasharray:none">
        <line
           id="Path-11"
           y2="2.5729587"
           x2="3.3521616"
           y1="1.7727529"
           x1="2.4396994"
           style="fill:none;fill-opacity:1;stroke:#ffffff;stroke-opacity:1;stroke-width:2.0743775;stroke-miterlimit:4;stroke-dasharray:none" />
        <line
           id="Path-12"
           y2="1.7727529"
           x2="6.4807787"
           y1="-8.8817842e-16"
           x1="6.4807787"
           style="fill:none;fill-opacity:1;stroke:#ffffff;stroke-opacity:1;stroke-width:2.0743775;stroke-miterlimit:4;stroke-dasharray:none" />
        <line
           id="Path-13"
           y2="2.5729587"
           x2="9.5741987"
           y1="1.5"
           x1="10.5"
           style="fill:none;fill-opacity:1;stroke:#ffffff;stroke-opacity:1;stroke-width:2.0743775;stroke-miterlimit:4;stroke-dasharray:none" />
        <circle
           r="7"
           cy="7"
           cx="7"
           stroke-width="1.5"
           id="Oval"
           style="fill:none;fill-opacity:1;stroke:#ffffff;stroke-opacity:1;stroke-width:2.0743775;stroke-miterlimit:4;stroke-dasharray:none" />
        <circle
           r="5.5"
           cy="7"
           cx="7"
           id="circle26"
           style="fill:none;fill-opacity:1;stroke:#ffffff;stroke-opacity:1;stroke-width:2.0743775;stroke-miterlimit:4;stroke-dasharray:none" />
        <line
           id="Path-14"
           y2="4.5"
           x2="11.5"
           y1="4.3413534"
           x1="13.937441"
           style="fill:none;fill-opacity:1;stroke:#ffffff;stroke-opacity:1;stroke-width:2.0743775;stroke-miterlimit:4;stroke-dasharray:none" />
        <line
           id="Path-15"
           y2="4.4316983"
           x2="1.8961582"
           y1="4.4316983"
           x1="0.48077875"
           style="fill:none;fill-opacity:1;stroke:#ffffff;stroke-opacity:1;stroke-width:2.0743775;stroke-miterlimit:4;stroke-dasharray:none" />
        <line
           id="Path-16"
           y2="7.5066843"
           x2="1.1884685"
           y1="7.5066843"
           x1="2.2737368e-13"
           style="fill:none;fill-opacity:1;stroke:#ffffff;stroke-opacity:1;stroke-width:2.0743775;stroke-miterlimit:4;stroke-dasharray:none" />
        <line
           transform="matrix(1,0,0,-1,0,23.654288)"
           id="line31"
           y2="12.227247"
           x2="3.3521616"
           y1="11.427041"
           x1="2.4396994"
           style="fill:none;fill-opacity:1;stroke:#ffffff;stroke-opacity:1;stroke-width:2.0743775;stroke-miterlimit:4;stroke-dasharray:none" />
        <line
           transform="matrix(1,0,0,-1,0,26.227248)"
           id="line33"
           y2="14"
           x2="6.4807787"
           y1="12.227247"
           x1="6.4807787"
           style="fill:none;fill-opacity:1;stroke:#ffffff;stroke-opacity:1;stroke-width:2.0743775;stroke-miterlimit:4;stroke-dasharray:none" />
        <line
           transform="matrix(1,0,0,-1,0,25.654288)"
           id="line35"
           y2="14.227247"
           x2="9.5741987"
           y1="12.154288"
           x1="10.5"
           style="fill:none;fill-opacity:1;stroke:#ffffff;stroke-opacity:1;stroke-width:2.0743775;stroke-miterlimit:4;stroke-dasharray:none" />
        <line
           transform="matrix(1,0,0,-1,0,20.136604)"
           id="line37"
           y2="10.636603"
           x2="11.5"
           y1="9.6366034"
           x1="13.5"
           style="fill:none;fill-opacity:1;stroke:#ffffff;stroke-opacity:1;stroke-width:2.0743775;stroke-miterlimit:4;stroke-dasharray:none" />
        <line
           transform="matrix(1,0,0,-1,0,19.136604)"
           id="line39"
           y2="9.5683022"
           x2="1.8961582"
           y1="9.5683022"
           x1="0.48077875"
           style="fill:none;fill-opacity:1;stroke:#ffffff;stroke-opacity:1;stroke-width:2.0743775;stroke-miterlimit:4;stroke-dasharray:none" />
        <line
           id="Path-17"
           y2="7"
           x2="14.480779"
           y1="7"
           x1="12.847593"
           style="fill:none;fill-opacity:1;stroke:#ffffff;stroke-opacity:1;stroke-width:2.0743775;stroke-miterlimit:4;stroke-dasharray:none" />
      </g>
      <path
         stroke-width="1.5"
         id="Path-2"
         d="M 8.3710902,30.158646 H 1.9197517 C 0.30691712,25.246485 -0.26620702,21.920539 0.20037932,20.180808 0.90025883,17.571212 4.2072143,13.994466 4.2072143,13.994466 c 0,0 12.8493437,-2.358624 14.1304347,-2.358624 1.28109,0 16.909821,-9.1092555 17.990648,-9.6507975 1.080826,-0.5415419 2.256337,-1.44159535 3.715041,-1.44159535 1.458705,0 24.70741,0.39270558 25.706459,0.90484075 3.86447,1.9810147 12.358383,9.6516841 12.668314,12.5461761 0.309932,2.894492 0,3.484991 0,6.955819 0,0.50768 1.887539,1.057097 1.594281,4.386963 -0.195506,2.21991 -0.915474,3.464384 -2.159904,3.733422 h -6.787969"
         style="fill:none;fill-opacity:1;stroke:#ffffff;stroke-opacity:1;stroke-width:2.0743775;stroke-miterlimit:4;stroke-dasharray:none" />
      <line
         stroke-width="1.5"
         id="Path-3"
         y2="29.658646"
         x2="57.043339"
         y1="29.658646"
         x1="22.043339"
         style="fill:none;fill-opacity:1;stroke:#ffffff;stroke-opacity:1;stroke-width:2.0743775;stroke-miterlimit:4;stroke-dasharray:none" />
      <polyline
         points="42.0433384 16.1586465 50.1917955 16.1586465 51.0433384 17.1586465"
         stroke-width="1.5"
         id="Path-4"
         style="fill:none;fill-opacity:1;stroke:#ffffff;stroke-opacity:1;stroke-width:2.0743775;stroke-miterlimit:4;stroke-dasharray:none" />
      <path
         stroke-width="1.5"
         id="Path-7"
         d="m 1.9714451,17.158646 h 7.0718933 c -1.5510012,2.051355 -2.7295521,3.077032 -3.5356527,3.077032 -0.8061007,0 -2.6275498,0.307656 -5.46434732,0.922968"
         style="fill:none;fill-opacity:1;stroke:#ffffff;stroke-opacity:1;stroke-width:2.0743775;stroke-miterlimit:4;stroke-dasharray:none" />
      <path
         stroke-width="1.5"
         id="Path-9"
         d="M 70.043338,10.02247 C 67.303874,5.9784328 65.398205,3.9564142 64.326332,3.9564142 c -1.60781,0 -23.714603,-1.246512 -25.500706,-0.623256 -1.190735,0.415504 -5.118165,3.0240001 -11.782288,7.8254888 z"
         style="fill:none;fill-opacity:1;stroke:#ffffff;stroke-opacity:1;stroke-width:2.0743775;stroke-miterlimit:4;stroke-dasharray:none" />
      <line
         stroke-width="1.5"
         id="Path-8"
         y2="3.1586466"
         x2="56.543339"
         y1="10.158647"
         x1="56.543339"
         style="fill:none;fill-opacity:1;stroke:#ffffff;stroke-opacity:1;stroke-width:2.0743775;stroke-miterlimit:4;stroke-dasharray:none" />
      <path
         stroke-width="1.5"
         id="Path-5"
         d="M 78.119233,13 H 70 c 1.705901,2.221996 3.059107,3.555329 4.059616,4 1.00051,0.444671 2.647304,0.444671 4.940384,0"
         style="fill:none;fill-opacity:1;stroke:#ffffff;stroke-opacity:1;stroke-width:2.0743775;stroke-miterlimit:4;stroke-dasharray:none" />
      <path
         stroke-width="1.5"
         id="Path-10"
         d=""
         style="fill:none;fill-opacity:1;stroke:#ffffff;stroke-opacity:1;stroke-width:2.0743775;stroke-miterlimit:4;stroke-dasharray:none" />
      <g
         transform="translate(57,21)"
         id="g80"
         style="fill:none;fill-opacity:1;stroke:#ffffff;stroke-opacity:1;stroke-width:2.0743775;stroke-miterlimit:4;stroke-dasharray:none">
        <line
           id="line52"
           y2="2.5729587"
           x2="3.3521616"
           y1="1.7727529"
           x1="2.4396994"
           style="fill:none;fill-opacity:1;stroke:#ffffff;stroke-opacity:1;stroke-width:2.0743775;stroke-miterlimit:4;stroke-dasharray:none" />
        <line
           id="line54"
           y2="1.7727529"
           x2="6.4807787"
           y1="-8.8817842e-16"
           x1="6.4807787"
           style="fill:none;fill-opacity:1;stroke:#ffffff;stroke-opacity:1;stroke-width:2.0743775;stroke-miterlimit:4;stroke-dasharray:none" />
        <line
           id="line56"
           y2="2.5729587"
           x2="9.5741987"
           y1="1.5"
           x1="10.5"
           style="fill:none;fill-opacity:1;stroke:#ffffff;stroke-opacity:1;stroke-width:2.0743775;stroke-miterlimit:4;stroke-dasharray:none" />
        <circle
           r="7"
           cy="7"
           cx="7"
           stroke-width="1.5"
           id="circle58"
           style="fill:none;fill-opacity:1;stroke:#ffffff;stroke-opacity:1;stroke-width:2.0743775;stroke-miterlimit:4;stroke-dasharray:none" />
        <circle
           r="5.5"
           cy="7"
           cx="7"
           id="circle60"
           style="fill:none;fill-opacity:1;stroke:#ffffff;stroke-opacity:1;stroke-width:2.0743775;stroke-miterlimit:4;stroke-dasharray:none" />
        <line
           id="line62"
           y2="4.5"
           x2="11.5"
           y1="4.3413534"
           x1="13.937441"
           style="fill:none;fill-opacity:1;stroke:#ffffff;stroke-opacity:1;stroke-width:2.0743775;stroke-miterlimit:4;stroke-dasharray:none" />
        <line
           id="line64"
           y2="4.4316983"
           x2="1.8961582"
           y1="4.4316983"
           x1="0.48077875"
           style="fill:none;fill-opacity:1;stroke:#ffffff;stroke-opacity:1;stroke-width:2.0743775;stroke-miterlimit:4;stroke-dasharray:none" />
        <line
           id="line66"
           y2="7.5066843"
           x2="1.1884685"
           y1="7.5066843"
           x1="2.2737368e-13"
           style="fill:none;fill-opacity:1;stroke:#ffffff;stroke-opacity:1;stroke-width:2.0743775;stroke-miterlimit:4;stroke-dasharray:none" />
        <line
           transform="matrix(1,0,0,-1,0,23.654288)"
           id="line68"
           y2="12.227247"
           x2="3.3521616"
           y1="11.427041"
           x1="2.4396994"
           style="fill:none;fill-opacity:1;stroke:#ffffff;stroke-opacity:1;stroke-width:2.0743775;stroke-miterlimit:4;stroke-dasharray:none" />
        <line
           transform="matrix(1,0,0,-1,0,26.227248)"
           id="line70"
           y2="14"
           x2="6.4807787"
           y1="12.227247"
           x1="6.4807787"
           style="fill:none;fill-opacity:1;stroke:#ffffff;stroke-opacity:1;stroke-width:2.0743775;stroke-miterlimit:4;stroke-dasharray:none" />
        <line
           transform="matrix(1,0,0,-1,0,25.654288)"
           id="line72"
           y2="14.227247"
           x2="9.5741987"
           y1="12.154288"
           x1="10.5"
           style="fill:none;fill-opacity:1;stroke:#ffffff;stroke-opacity:1;stroke-width:2.0743775;stroke-miterlimit:4;stroke-dasharray:none" />
        <line
           transform="matrix(1,0,0,-1,0,20.136604)"
           id="line74"
           y2="10.636603"
           x2="11.5"
           y1="9.6366034"
           x1="13.5"
           style="fill:none;fill-opacity:1;stroke:#ffffff;stroke-opacity:1;stroke-width:2.0743775;stroke-miterlimit:4;stroke-dasharray:none" />
        <line
           transform="matrix(1,0,0,-1,0,19.136604)"
           id="line76"
           y2="9.5683022"
           x2="1.8961582"
           y1="9.5683022"
           x1="0.48077875"
           style="fill:none;fill-opacity:1;stroke:#ffffff;stroke-opacity:1;stroke-width:2.0743775;stroke-miterlimit:4;stroke-dasharray:none" />
        <line
           id="line78"
           y2="7"
           x2="14.480779"
           y1="7"
           x1="12.847593"
           style="fill:none;fill-opacity:1;stroke:#ffffff;stroke-opacity:1;stroke-width:2.0743775;stroke-miterlimit:4;stroke-dasharray:none" />
      </g>
    </g>
  </g>
</svg>
